>>>>>>>>>>>>>>>>>>>>>><<<<<<<<<<<<<<<<<<<<<<<<

Encuentra este y muchos mas Solucionarios en

     http://chambauer.blogspot.com/

>>>>>>>>>>>>>>>>>>>>>><<<<<<<<<<<<<<<<<<<<<<<<

  Find this and many more Solutions Manual

      http://chambauer.blogspot.com/

>>>>>>>>>>>>>>>>>>>>>><<<<<<<<<<<<<<<<<<<<<<<<


Salu2

Cham Bauer